runRepDateId,runUID,repId,repUID,suggestedDate
11,1,1001,a,2018-02-01
12,2,1001,a,2018-02-02
13,3,1001,a,2018-02-03
21,1,1002,b,2018-02-01
22,2,1002,b,2018-02-02
23,3,1002,b,2018-02-03
31,1,1003,c,2018-02-01
32,2,1003,c,2018-02-02
33,3,1003,c,2018-02-03
41,1,1004,d,2018-02-01
42,2,1004,d,2018-02-02
43,3,1004,d,2018-02-03
51,1,1005,e,2018-02-01
52,2,1005,e,2018-02-02
53,3,1005,e,2018-02-03
61,1,1006,f,2018-02-01
62,2,1006,f,2018-02-02
63,3,1006,f,2018-02-03
71,1,1007,g,2018-02-01
72,2,1007,g,2018-02-02
73,3,1007,g,2018-02-03
81,1,1008,h,2018-02-01
82,2,1008,h,2018-02-02
83,3,1008,h,2018-02-03
91,1,1009,i,2018-02-01
92,2,1009,i,2018-02-02
93,3,1009,i,2018-02-03
101,1,1010,j,2018-02-01
102,2,1010,j,2018-02-02
103,3,1010,j,2018-02-03
