{"repId": 1007, "StartDateLocalSynched": "2018-02-02", "runId": 2, "Times_Synched": 2.0}
{"repId": 1003, "StartDateLocalSynched": "2018-02-03", "runId": 3, "Times_Synched": 2.0}
{"repId": 1004, "StartDateLocalSynched": "2018-02-03", "runId": 3, "Times_Synched": 2.0}
{"repId": 1004, "StartDateLocalSynched": "2018-02-01", "runId": 1, "Times_Synched": 2.0}
{"repId": 1005, "StartDateLocalSynched": "2018-02-01", "runId": 1, "Times_Synched": 2.0}
{"repId": 1002, "StartDateLocalSynched": "2018-02-03", "runId": 3, "Times_Synched": 2.0}
{"repId": 1009, "StartDateLocalSynched": "2018-02-02", "runId": 2, "Times_Synched": 2.0}
{"repId": 1003, "StartDateLocalSynched": "2018-02-02", "runId": 2, "Times_Synched": 2.0}
{"repId": 1010, "StartDateLocalSynched": "2018-02-02", "runId": 2, "Times_Synched": 2.0}
{"repId": 1003, "StartDateLocalSynched": "2018-02-01", "runId": 1, "Times_Synched": 2.0}
{"repId": 1002, "StartDateLocalSynched": "2018-02-01", "runId": 1, "Times_Synched": 2.0}
{"repId": 1001, "StartDateLocalSynched": "2018-02-03", "runId": 3, "Times_Synched": 2.0}
{"repId": 1006, "StartDateLocalSynched": "2018-02-01", "runId": 1, "Times_Synched": 2.0}
{"repId": 1008, "StartDateLocalSynched": "2018-02-02", "runId": 2, "Times_Synched": 2.0}
{"repId": 1008, "StartDateLocalSynched": "2018-02-03", "runId": 3, "Times_Synched": 2.0}
{"repId": 1004, "StartDateLocalSynched": "2018-02-02", "runId": 2, "Times_Synched": 2.0}
{"repId": 1005, "StartDateLocalSynched": "2018-02-03", "runId": 3, "Times_Synched": 2.0}
{"repId": 1007, "StartDateLocalSynched": "2018-02-01", "runId": 1, "Times_Synched": 2.0}
{"repId": 1009, "StartDateLocalSynched": "2018-02-03", "runId": 3, "Times_Synched": 2.0}
{"repId": 1001, "StartDateLocalSynched": "2018-02-01", "runId": 1, "Times_Synched": 2.0}
{"repId": 1005, "StartDateLocalSynched": "2018-02-02", "runId": 2, "Times_Synched": 2.0}
{"repId": 1010, "StartDateLocalSynched": "2018-02-01", "runId": 1, "Times_Synched": 2.0}
{"repId": 1001, "StartDateLocalSynched": "2018-02-02", "runId": 2, "Times_Synched": 2.0}
{"repId": 1006, "StartDateLocalSynched": "2018-02-03", "runId": 3, "Times_Synched": 2.0}
{"repId": 1006, "StartDateLocalSynched": "2018-02-02", "runId": 2, "Times_Synched": 2.0}
{"repId": 1010, "StartDateLocalSynched": "2018-02-03", "runId": 3, "Times_Synched": 2.0}
{"repId": 1009, "StartDateLocalSynched": "2018-02-01", "runId": 1, "Times_Synched": 2.0}
{"repId": 1002, "StartDateLocalSynched": "2018-02-02", "runId": 2, "Times_Synched": 2.0}
{"repId": 1007, "StartDateLocalSynched": "2018-02-03", "runId": 3, "Times_Synched": 2.0}
{"repId": 1008, "StartDateLocalSynched": "2018-02-01", "runId": 1, "Times_Synched": 2.0}
